{
 "cwbdata": {
  "@xmlns": "urn:cwb.gov.tw:cwbdata-0.1",
  "@xmlns:xsi": "http://www.w3.org/2001/XMLSchema-instance",
  "@xsi:schemaLocation": "urn:cwb.gov.tw:cwbdata-0.1 http://odtest.cwb.gov.tw/XSD/CWB-data-0.1.xsd",
  "identifier": "472c7047-eb48-4aa1-8fc0-9be46a234889",
  "datasetID": "F-AMD-2001",
  "datasetName": "農業氣象預報",
  "dataItemID": "F-AMD-2001-00001",
  "sender": "weather@cwb.gov.tw",
  "sent": "2019-11-06T01:27:05+08:00",
  "status": "Actual",
  "scope": "Public",
  "msgType": "Issue",
  "publisherOID": "2.16.886.101.20003.20008.20004",
  "resources": {
   "resource": {
    "metadata": {
     "resourceName": "中央氣象局氣候服務_農業氣象一週預報",
     "resourceDescription": "提供氣象局預報資料和農事建議，供農業相關單位及農民參考",
     "language": "zh",
     "homepage": "https://www.cwb.gov.tw/V7/forecast/week/w44.htm",
     "sources": {
      "source": [
       {
        "title": "1週預報",
        "path": "https://www.cwb.gov.tw/V7/forecast/week/week.htm"
       },
       {
        "title": "長期天氣預報-季長期天氣展望",
        "path": "https://opendata.cwb.gov.tw/catalog%3fgroup%3df%26dataid%3dA0013-002"
       },
       {
        "title": "天氣特報-豪大雨特報",
        "path": "https://opendata.cwb.gov.tw/catalog%3fgroup%3dw%26dataid%3dC0033-003"
       }
      ]
     },
     "temporal": {
      "issueTime": "2019-11-06T17:00:00+08:00",
      "validTime": {
       "startTime": "2019-11-07T00:00:00+08:00",
       "endTime": "2019-11-14T00:00:00+08:00"
      }
     },
     "weatherElements": {
      "weatherElement": [
       {
        "tagName": "weather",
        "description": "天氣描述"
       },
       {
        "tagName": "temperature",
        "description": "氣溫",
        "units": "˚C"
       },
       {
        "tagName": "agrWeatherForecasts",
        "description": "一週農業天氣預報"
       },
       {
        "tagName": "weatherProfile",
        "description": "天氣概況"
       },
       {
        "tagName": "weatherForecasts",
        "description": "天氣預報"
       },
       {
        "tagName": "agrAdvices",
        "description": "農事建議"
       },
       {
        "tagName": "degreeDay",
        "description": "度日(植物發育時所需之有效溫度單位)",
        "units": "GDD"
       },
       {
        "tagName": "accumulatedTemperature",
        "description": "積溫(植物發育過程中，當各生育階段有效溫度累積至一定數值時，即可完成發育。該數值即稱為此一發育階段所需的積溫。)",
        "units": "ATU"
       },
       {
        "tagName": "cardinalTemperatures",
        "description": "作物生長溫度區間",
        "units": "˚C",
        "statisticalMethods": {
         "statisticalMethod": [
          {
           "methodTagName": "minimum",
           "description": "生長最低溫"
          },
          {
           "methodTagName": "maximum",
           "description": "生長最高溫"
          },
          {
           "methodTagName": "optimum",
           "description": "生長最適溫"
          }
         ]
        }
       },
       {
        "tagName": "growingDays",
        "description": "生育日數"
       },
       {
        "tagName": "cropStatistics",
        "description": "農業積溫統計"
       },
       {
        "tagName": "agrReport",
        "description": "其他建議"
       },
       {
        "tagName": "section",
        "description": "其他建議主段落"
       },
       {
        "tagName": "subsection",
        "description": "其他建議副段落"
       }
      ]
     }
    },
    "data": {
     "agrWeatherForecasts": {
      "weatherProfile": 
"7日上午各地大多為多雲到晴,僅東北部地區及北部山區有局部短暫雨。下午起至8日東北季風增強,北部及東北部天氣轉涼,其他地區早晚亦涼;東北部地區轉為有雨的天氣,並有局部大雨發生的機率,北部、東部及東南部地區亦轉為有局部短暫雨的天氣,其他地區多雲到晴。9日至11日東北季風及輻射冷卻影響,早晚較涼,中南部日夜溫差大,各地大多為多雲到晴,僅東北部及東部地區零星短暫雨。12日、13日東北季風減弱,早晚仍涼,西半部日夜溫差大,各地大多為多雲到晴,僅東北部及東部地區局部短暫雨。7日東半部(含蘭嶼、綠島)及恆春半島沿海地區有長浪發生的機率。",
      "weatherForecasts": {
       "location": [
        {
         "locationName": "北部地區",
         "weatherElements": {
          "Wx": {
           "daily": [
            {
             "dataDate": "2019-11-07",
             "weather": "多雲短暫雨",
             "weatherid": "8"
            },
            {
             "dataDate": "2019-11-08",
             "weather": "多雲短暫雨",
             "weatherid": "8"
            },
            {
             "dataDate": "2019-11-09",
             "weather": "多雲時晴",
             "weatherid": "3"
            },
            {
             "dataDate": "2019-11-10",
             "weather": "晴時多雲",
             "weatherid": "2"
            },
            {
             "dataDate": "2019-11-11",
             "weather": "晴時多雲",
             "weatherid": "2"
            },
            {
             "dataDate": "2019-11-12",
             "weather": "晴時多雲",
             "weatherid": "2"
            },
            {
             "dataDate": "2019-11-13",
             "weather": "晴時多雲",
             "weatherid": "2"
            }
           ]
          },
          "MaxT": {
           "daily": [
            {
             "dataDate": "2019-11-07",
             "temperature": "26"
            },
            {
             "dataDate": "2019-11-08",
             "temperature": "25"
            },
            {
             "dataDate": "2019-11-09",
             "temperature": "24"
            },
            {
             "dataDate": "2019-11-10",
             "temperature": "26"
            },
            {
             "dataDate": "2019-11-11",
             "temperature": "27"
            },
            {
             "dataDate": "2019-11-12",
             "temperature": "27"
            },
            {
             "dataDate": "2019-11-13",
             "temperature": "27"
            }
           ]
          },
          "MinT": {
           "daily": [
            {
             "dataDate": "2019-11-07",
             "temperature": "19"
            },
            {
             "dataDate": "2019-11-08",
             "temperature": "19"
            },
            {
             "dataDate": "2019-11-09",
             "temperature": "18"
            },
            {
             "dataDate": "2019-11-10",
             "temperature": "17"
            },
            {
             "dataDate": "2019-11-11",
             "temperature": "17"
            },
            {
             "dataDate": "2019-11-12",
             "temperature": "19"
            },
            {
             "dataDate": "2019-11-13",
             "temperature": "18"
            }
           ]
          }
         }
        },
        {
         "locationName": "中部地區",
         "weatherElements": {
          "Wx": {
           "daily": [
            {
             "dataDate": "2019-11-07",
             "weather": "晴時多雲",
             "weatherid": "2"
            },
            {
             "dataDate": "2019-11-08",
             "weather": "晴時多雲",
             "weatherid": "2"
            },
            {
             "dataDate": "2019-11-09",
             "weather": "晴時多雲",
             "weatherid": "2"
            },
            {
             "dataDate": "2019-11-10",
             "weather": "晴時多雲",
             "weatherid": "2"
            },
            {
             "dataDate": "2019-11-11",
             "weather": "晴時多雲",
             "weatherid": "2"
            },
            {
             "dataDate": "2019-11-12",
             "weather": "晴時多雲",
             "weatherid": "2"
            },
            {
             "dataDate": "2019-11-13",
             "weather": "晴時多雲",
             "weatherid": "2"
            }
           ]
          },
          "MaxT": {
           "daily": [
            {
             "dataDate": "2019-11-07",
             "temperature": "30"
            },
            {
             "dataDate": "2019-11-08",
             "temperature": "30"
            },
            {
             "dataDate": "2019-11-09",
             "temperature": "30"
            },
            {
             "dataDate": "2019-11-10",
             "temperature": "30"
            },
            {
             "dataDate": "2019-11-11",
             "temperature": "30"
            },
            {
             "dataDate": "2019-11-12",
             "temperature": "30"
            },
            {
             "dataDate": "2019-11-13",
             "temperature": "30"
            }
           ]
          },
          "MinT": {
           "daily": [
            {
             "dataDate": "2019-11-07",
             "temperature": "19"
            },
            {
             "dataDate": "2019-11-08",
             "temperature": "19"
            },
            {
             "dataDate": "2019-11-09",
             "temperature": "19"
            },
            {
             "dataDate": "2019-11-10",
             "temperature": "18"
            },
            {
             "dataDate": "2019-11-11",
             "temperature": "18"
            },
            {
             "dataDate": "2019-11-12",
             "temperature": "19"
            },
            {
             "dataDate": "2019-11-13",
             "temperature": "19"
            }
           ]
          }
         }
        },
        {
         "locationName": "南部地區",
         "weatherElements": {
          "Wx": {
           "daily": [
            {
             "dataDate": "2019-11-07",
             "weather": "晴時多雲",
             "weatherid": "2"
            },
            {
             "dataDate": "2019-11-08",
             "weather": "晴時多雲",
             "weatherid": "2"
            },
            {
             "dataDate": "2019-11-09",
             "weather": "晴時多雲",
             "weatherid": "2"
            },
            {
             "dataDate": "2019-11-10",
             "weather": "晴時多雲",
             "weatherid": "2"
            },
            {
             "dataDate": "2019-11-11",
             "weather": "晴時多雲",
             "weatherid": "2"
            },
            {
             "dataDate": "2019-11-12",
             "weather": "晴時多雲",
             "weatherid": "2"
            },
            {
             "dataDate": "2019-11-13",
             "weather": "晴時多雲",
             "weatherid": "2"
            }
           ]
          },
          "MaxT": {
           "daily": [
            {
             "dataDate": "2019-11-07",
             "temperature": "30"
            },
            {
             "dataDate": "2019-11-08",
             "temperature": "30"
            },
            {
             "dataDate": "2019-11-09",
             "temperature": "30"
            },
            {
             "dataDate": "2019-11-10",
             "temperature": "30"
            },
            {
             "dataDate": "2019-11-11",
             "temperature": "30"
            },
            {
             "dataDate": "2019-11-12",
             "temperature": "30"
            },
            {
             "dataDate": "2019-11-13",
             "temperature": "30"
            }
           ]
          },
          "MinT": {
           "daily": [
            {
             "dataDate": "2019-11-07",
             "temperature": "21"
            },
            {
             "dataDate": "2019-11-08",
             "temperature": "20"
            },
            {
             "dataDate": "2019-11-09",
             "temperature": "21"
            },
            {
             "dataDate": "2019-11-10",
             "temperature": "21"
            },
            {
             "dataDate": "2019-11-11",
             "temperature": "21"
            },
            {
             "dataDate": "2019-11-12",
             "temperature": "20"
            },
            {
             "dataDate": "2019-11-13",
             "temperature": "20"
            }
           ]
          }
         }
        },
        {
         "locationName": "東北部地區",
         "weatherElements": {
          "Wx": {
           "daily": [
            {
             "dataDate": "2019-11-07",
             "weather": "多雲時陰有雨",
             "weatherid": "12"
            },
            {
             "dataDate": "2019-11-08",
             "weather": "陰有雨",
             "weatherid": "14"
            },
            {
             "dataDate": "2019-11-09",
             "weather": "陰時多雲",
             "weatherid": "6"
            },
            {
             "dataDate": "2019-11-10",
             "weather": "多雲時晴",
             "weatherid": "3"
            },
            {
             "dataDate": "2019-11-11",
             "weather": "多雲時晴",
             "weatherid": "3"
            },
            {
             "dataDate": "2019-11-12",
             "weather": "多雲時晴",
             "weatherid": "3"
            },
            {
             "dataDate": "2019-11-13",
             "weather": "多雲時晴",
             "weatherid": "3"
            }
           ]
          },
          "MaxT": {
           "daily": [
            {
             "dataDate": "2019-11-07",
             "temperature": "26"
            },
            {
             "dataDate": "2019-11-08",
             "temperature": "23"
            },
            {
             "dataDate": "2019-11-09",
             "temperature": "23"
            },
            {
             "dataDate": "2019-11-10",
             "temperature": "26"
            },
            {
             "dataDate": "2019-11-11",
             "temperature": "26"
            },
            {
             "dataDate": "2019-11-12",
             "temperature": "26"
            },
            {
             "dataDate": "2019-11-13",
             "temperature": "26"
            }
           ]
          },
          "MinT": {
           "daily": [
            {
             "dataDate": "2019-11-07",
             "temperature": "20"
            },
            {
             "dataDate": "2019-11-08",
             "temperature": "20"
            },
            {
             "dataDate": "2019-11-09",
             "temperature": "19"
            },
            {
             "dataDate": "2019-11-10",
             "temperature": "18"
            },
            {
             "dataDate": "2019-11-11",
             "temperature": "17"
            },
            {
             "dataDate": "2019-11-12",
             "temperature": "18"
            },
            {
             "dataDate": "2019-11-13",
             "temperature": "18"
            }
           ]
          }
         }
        },
        {
         "locationName": "東部地區",
         "weatherElements": {
          "Wx": {
           "daily": [
            {
             "dataDate": "2019-11-07",
             "weather": "多雲時陰短暫雨",
             "weatherid": "9"
            },
            {
             "dataDate": "2019-11-08",
             "weather": "陰短暫雨",
             "weatherid": "11"
            },
            {
             "dataDate": "2019-11-09",
             "weather": "多雲時陰",
             "weatherid": "5"
            },
            {
             "dataDate": "2019-11-10",
             "weather": "多雲時晴",
             "weatherid": "3"
            },
            {
             "dataDate": "2019-11-11",
             "weather": "晴時多雲",
             "weatherid": "2"
            },
            {
             "dataDate": "2019-11-12",
             "weather": "晴時多雲",
             "weatherid": "2"
            },
            {
             "dataDate": "2019-11-13",
             "weather": "多雲時晴",
             "weatherid": "3"
            }
           ]
          },
          "MaxT": {
           "daily": [
            {
             "dataDate": "2019-11-07",
             "temperature": "27"
            },
            {
             "dataDate": "2019-11-08",
             "temperature": "26"
            },
            {
             "dataDate": "2019-11-09",
             "temperature": "24"
            },
            {
             "dataDate": "2019-11-10",
             "temperature": "27"
            },
            {
             "dataDate": "2019-11-11",
             "temperature": "27"
            },
            {
             "dataDate": "2019-11-12",
             "temperature": "27"
            },
            {
             "dataDate": "2019-11-13",
             "temperature": "27"
            }
           ]
          },
          "MinT": {
           "daily": [
            {
             "dataDate": "2019-11-07",
             "temperature": "21"
            },
            {
             "dataDate": "2019-11-08",
             "temperature": "22"
            },
            {
             "dataDate": "2019-11-09",
             "temperature": "20"
            },
            {
             "dataDate": "2019-11-10",
             "temperature": "19"
            },
            {
             "dataDate": "2019-11-11",
             "temperature": "20"
            },
            {
             "dataDate": "2019-11-12",
             "temperature": "21"
            },
            {
             "dataDate": "2019-11-13",
             "temperature": "20"
            }
           ]
          }
         }
        },
        {
         "locationName": "東南部地區",
         "weatherElements": {
          "Wx": {
           "daily": [
            {
             "dataDate": "2019-11-07",
             "weather": "多雲",
             "weatherid": "4"
            },
            {
             "dataDate": "2019-11-08",
             "weather": "多雲",
             "weatherid": "4"
            },
            {
             "dataDate": "2019-11-09",
             "weather": "多雲",
             "weatherid": "4"
            },
            {
             "dataDate": "2019-11-10",
             "weather": "多雲時晴",
             "weatherid": "3"
            },
            {
             "dataDate": "2019-11-11",
             "weather": "晴時多雲",
             "weatherid": "2"
            },
            {
             "dataDate": "2019-11-12",
             "weather": "晴時多雲",
             "weatherid": "2"
            },
            {
             "dataDate": "2019-11-13",
             "weather": "晴時多雲",
             "weatherid": "2"
            }
           ]
          },
          "MaxT": {
           "daily": [
            {
             "dataDate": "2019-11-07",
             "temperature": "28"
            },
            {
             "dataDate": "2019-11-08",
             "temperature": "27"
            },
            {
             "dataDate": "2019-11-09",
             "temperature": "26"
            },
            {
             "dataDate": "2019-11-10",
             "temperature": "27"
            },
            {
             "dataDate": "2019-11-11",
             "temperature": "28"
            },
            {
             "dataDate": "2019-11-12",
             "temperature": "27"
            },
            {
             "dataDate": "2019-11-13",
             "temperature": "28"
            }
           ]
          },
          "MinT": {
           "daily": [
            {
             "dataDate": "2019-11-07",
             "temperature": "22"
            },
            {
             "dataDate": "2019-11-08",
             "temperature": "22"
            },
            {
             "dataDate": "2019-11-09",
             "temperature": "21"
            },
            {
             "dataDate": "2019-11-10",
             "temperature": "20"
            },
            {
             "dataDate": "2019-11-11",
             "temperature": "20"
            },
            {
             "dataDate": "2019-11-12",
             "temperature": "21"
            },
            {
             "dataDate": "2019-11-13",
             "temperature": "21"
            }
           ]
          }
         }
        }
       ]
      },
      "agrAdvices": {
       "agrForecasts": {
        "location": [
         {
          "locationName": "北部地區",
          "weatherElements": {
           "daily": [
            {
             "dataDate": "2019-11-07",
             "degreeDay": "12.5",
             "accumulatedTemperature": "12.5"
            },
            {
             "dataDate": "2019-11-08",
             "degreeDay": "12.0",
             "accumulatedTemperature": "24.5"
            },
            {
             "dataDate": "2019-11-09",
             "degreeDay": "11.0",
             "accumulatedTemperature": "35.5"
            },
            {
             "dataDate": "2019-11-10",
             "degreeDay": "11.5",
             "accumulatedTemperature": "47.0"
            },
            {
             "dataDate": "2019-11-11",
             "degreeDay": "12.0",
             "accumulatedTemperature": "59.0"
            },
            {
             "dataDate": "2019-11-12",
             "degreeDay": "13.0",
             "accumulatedTemperature": "72.0"
            },
            {
             "dataDate": "2019-11-13",
             "degreeDay": "12.5",
             "accumulatedTemperature": "84.5"
            }
           ]
          }
         },
         {
          "locationName": "中部地區",
          "weatherElements": {
           "daily": [
            {
             "dataDate": "2019-11-07",
             "degreeDay": "14.5",
             "accumulatedTemperature": "14.5"
            },
            {
             "dataDate": "2019-11-08",
             "degreeDay": "14.5",
             "accumulatedTemperature": "29.0"
            },
            {
             "dataDate": "2019-11-09",
             "degreeDay": "14.5",
             "accumulatedTemperature": "43.5"
            },
            {
             "dataDate": "2019-11-10",
             "degreeDay": "14.0",
             "accumulatedTemperature": "57.5"
            },
            {
             "dataDate": "2019-11-11",
             "degreeDay": "14.0",
             "accumulatedTemperature": "71.5"
            },
            {
             "dataDate": "2019-11-12",
             "degreeDay": "14.5",
             "accumulatedTemperature": "86.0"
            },
            {
             "dataDate": "2019-11-13",
             "degreeDay": "14.5",
             "accumulatedTemperature": "100.5"
            }
           ]
          }
         },
         {
          "locationName": "南部地區",
          "weatherElements": {
           "daily": [
            {
             "dataDate": "2019-11-07",
             "degreeDay": "15.5",
             "accumulatedTemperature": "15.5"
            },
            {
             "dataDate": "2019-11-08",
             "degreeDay": "15.0",
             "accumulatedTemperature": "30.5"
            },
            {
             "dataDate": "2019-11-09",
             "degreeDay": "15.5",
             "accumulatedTemperature": "46.0"
            },
            {
             "dataDate": "2019-11-10",
             "degreeDay": "15.5",
             "accumulatedTemperature": "61.5"
            },
            {
             "dataDate": "2019-11-11",
             "degreeDay": "15.5",
             "accumulatedTemperature": "77.0"
            },
            {
             "dataDate": "2019-11-12",
             "degreeDay": "15.0",
             "accumulatedTemperature": "92.0"
            },
            {
             "dataDate": "2019-11-13",
             "degreeDay": "15.0",
             "accumulatedTemperature": "107.0"
            }
           ]
          }
         },
         {
          "locationName": "東北部地區",
          "weatherElements": {
           "daily": [
            {
             "dataDate": "2019-11-07",
             "degreeDay": "13.0",
             "accumulatedTemperature": "13.0"
            },
            {
             "dataDate": "2019-11-08",
             "degreeDay": "11.5",
             "accumulatedTemperature": "24.5"
            },
            {
             "dataDate": "2019-11-09",
             "degreeDay": "11.0",
             "accumulatedTemperature": "35.5"
            },
            {
             "dataDate": "2019-11-10",
             "degreeDay": "12.0",
             "accumulatedTemperature": "47.5"
            },
            {
             "dataDate": "2019-11-11",
             "degreeDay": "11.5",
             "accumulatedTemperature": "59.0"
            },
            {
             "dataDate": "2019-11-12",
             "degreeDay": "12.0",
             "accumulatedTemperature": "71.0"
            },
            {
             "dataDate": "2019-11-13",
             "degreeDay": "12.0",
             "accumulatedTemperature": "83.0"
            }
           ]
          }
         },
         {
          "locationName": "東部地區",
          "weatherElements": {
           "daily": [
            {
             "dataDate": "2019-11-07",
             "degreeDay": "14.0",
             "accumulatedTemperature": "14.0"
            },
            {
             "dataDate": "2019-11-08",
             "degreeDay": "14.0",
             "accumulatedTemperature": "28.0"
            },
            {
             "dataDate": "2019-11-09",
             "degreeDay": "12.0",
             "accumulatedTemperature": "40.0"
            },
            {
             "dataDate": "2019-11-10",
             "degreeDay": "13.0",
             "accumulatedTemperature": "53.0"
            },
            {
             "dataDate": "2019-11-11",
             "degreeDay": "13.5",
             "accumulatedTemperature": "66.5"
            },
            {
             "dataDate": "2019-11-12",
             "degreeDay": "14.0",
             "accumulatedTemperature": "80.5"
            },
            {
             "dataDate": "2019-11-13",
             "degreeDay": "13.5",
             "accumulatedTemperature": "94.0"
            }
           ]
          }
         },
         {
          "locationName": "東南部地區",
          "weatherElements": {
           "daily": [
            {
             "dataDate": "2019-11-07",
             "degreeDay": "15.0",
             "accumulatedTemperature": "15.0"
            },
            {
             "dataDate": "2019-11-08",
             "degreeDay": "14.5",
             "accumulatedTemperature": "29.5"
            },
            {
             "dataDate": "2019-11-09",
             "degreeDay": "13.5",
             "accumulatedTemperature": "43.0"
            },
            {
             "dataDate": "2019-11-10",
             "degreeDay": "13.5",
             "accumulatedTemperature": "56.5"
            },
            {
             "dataDate": "2019-11-11",
             "degreeDay": "14.0",
             "accumulatedTemperature": "70.5"
            },
            {
             "dataDate": "2019-11-12",
             "degreeDay": "14.0",
             "accumulatedTemperature": "84.5"
            },
            {
             "dataDate": "2019-11-13",
             "degreeDay": "14.5",
             "accumulatedTemperature": "99.0"
            }
           ]
          }
         }
        ]
       },
       "cropStatistics": {
        "crop": {
         "cropName": "水稻",
         "cardinalTemperatures": {
          "growingStage": {
           "description": "稻作生長溫度",
           "minimum": "10",
           "maximum": "40"
          }
         },
         "location": [
          {
           "locationName": "花蓮地區",
           "cropBreed": "臺農67號",
           "statistics": {
            "fifteenYears": {
             "description": "二期稻作生育日數及生育期總積溫(15年平均值)",
             "timePeriod": [
              {
               "description": "插秧至抽穗",
               "growingDays": "71",
               "accumulatedTemperature": "1184.31"
              },
              {
               "description": "插秧至收穫",
               "growingDays": "119",
               "accumulatedTemperature": "1778.01"
              }
             ]
            },
            "thisYear": {
             "description": "108年二期稻作積溫值 (各改良場豐歉試驗臺農67號)",
             "dibblingDate": "2019-08-07",
             "timePeriod": {
              "description": "插秧至本日",
              "startDate": "2019-08-07",
              "endDate": "2019-11-05",
              "growingDays": "91",
              "accumulatedTemperature": "1423.65"
             }
            }
           }
          },
          {
           "locationName": "臺中地區",
           "cropBreed": "臺農67號",
           "statistics": {
            "fifteenYears": {
             "description": "二期稻作生育日數及生育期總積溫(15年平均值)",
             "timePeriod": [
              {
               "description": "插秧至抽穗",
               "growingDays": "66",
               "accumulatedTemperature": "1203.35"
              },
              {
               "description": "插秧至收穫",
               "growingDays": "107",
               "accumulatedTemperature": "1794.83"
              }
             ]
            },
            "thisYear": {
             "description": "108年二期稻作積溫值 (各改良場豐歉試驗臺農67號)",
             "dibblingDate": "2019-08-03",
             "timePeriod": {
              "description": "插秧至本日",
              "startDate": "2019-08-03",
              "endDate": "2019-11-05",
              "growingDays": "95",
              "accumulatedTemperature": "1637.5"
             }
            }
           }
          }
         ]
        }
       },
       "agrReport": {
        "section": [
         {
          "content": 
"近期逐漸受東北季風增強影響,各地早晚趨涼,迎風面的北部及東半部地區多雲時陰偶雨,中南部地區則維持多雲到晴的天氣;主要降雨在東北部、北部、東半部。明(7日)上午各地大多為多雲到晴,僅東北部地區及北部山區有局部短暫雨;明下午起至週五(8日)東北季風增強,北部及東北部天氣轉涼,其他地區早晚亦涼,東北部地區轉為雨並有局部較大雨勢發生的機率,屆時請相關地區農友留意;北部、東部及東南部地區亦轉為局部短暫雨的天氣,其他地區為多雲到晴。而週六至下週一(9至11日)東北季風及輻射冷卻影響,早晚較涼,中南部日夜溫差大,各地大多為多雲到晴,僅東北部及東部地區零星短暫雨。近期仍為農作物病蟲害好發期間,籲請農友持續做好田間病蟲害管理,並參考本局提供更精細之368鄉鎮天氣預報資訊,以有效規劃相關作業。",
          "subsection": [
           {
            "content": 
"東北季風影響期間,籲請相關地區農友做好水稻、雜糧、園藝等作物防範措施,並請提防病蟲為害,各類措施分述如下:1、水稻:宜適度調節田間給水供灌及適時預防白葉枯病、螟蟲、縱捲葉蟲、褐飛蝨與鳥害;並適時收割、乾燥。2、雜糧、園藝(含各類果樹、蔬菜)作物:園區宜適度給水供灌與適時各類病蟲害之預防;並適時收穫、乾燥、調製,天氣逐漸趨涼,籲請種植相關作物且符合疫病好發條件地區之農友提前留意白粉病、晚疫病等相關病害防治。3、籲請農友持續加強田間作物病蟲害防治,以確保農作收益。請特別留意綜合病蟲害管理(IPM)、合理化施肥之重要性;採溫(網)室等設施栽培之地區請注意溫度調節,以利作物生長。4、時序將進入秋、冬季時,預期降雨量將減少、請節約用水,有效應用水資源。"
           },
           {
            "content": 
"由於西半部地區早晚溫差大,清晨時植株葉片易有露水附著,適於馬鈴薯及番茄晚疫病的發生,如再碰上伴隨雨霧來襲,病害在田間的蔓延極為快速。請在連續陰雨之前立即施藥,即可有效控制。如田間已發生病害,應立即施藥,並進行清園工作。此外改善田間排水與通風,也是預防晚疫病的重要措施。"
           },
           {
            "content": "中南部可利用天氣相對穩定時進行收割作業,請二期稻作已屆收穫期之農友與代耕業者排程收穫,當稻穀呈現金黃色,僅末端2∼3粒稻穀黃綠色時,為最佳收穫期。適時收穫稻穀飽滿度高、品質佳、濕度低折算乾穀重量多、收益增加。"
           }
          ]
         },
         {
          "content": "籲請相關地區農友留意甘藷蟻象防治工作:",
          "subsection": [
           {
            "content": "甘藷蟻象為我國甘藷最重要之害蟲,在澎湖及旱作地帶較為嚴重。在臺灣地區年發生7∼8代,周年以8∼隔年1月間以乾燥期間為發生盛期,3∼8月間較少。"
           },
           {
            "content": 
"危害狀:成蟲喜棲息在暗處或葉蔓間,雌蟲交尾後由土隙間潛入土中,至主蔓或塊根表皮,以口器嚙孔,後插入產卵管將卵產於孔內,產卵後再以蛀孔時之嚙起物蓋之,一孔為一粒。孵化幼蟲蛀入主蔓或塊根內潛行嚙食,被害痕呈褐色且木栓化、具惡臭,俗稱「臭香」,被害塊根不能食。本蟲為害常由塊根頂部開始,其為害狀與緣葉蟲相反。"
           },
           {
            "content": 
"防治方法:1、選擇砂土或砂質土壤,被害較輕。2、避免連作,若需連作務必徹底清園,將前作之殘株集中燒毀,或浸水至少48小時。3、去除中間寄主牽牛花。4、加強期中覆土,避免塊根外露。5、使用性費洛蒙誘殺雄蟲,每分地設置4個,高度約葉蔓上10公分,有效期2∼3個月。(參考資料來源:行政院農業委員會)"
           }
          ]
         },
         {
          "content": "白粉病好發期,籲請農友加強防治工作:",
          "subsection": [
           {
            "content": 
"白粉病主要出現於秋季至隔年春季,冷涼少雨之季節危害最為嚴重;尤其塑膠布設施栽培作物,因隔絕雨水接觸,所以白粉病發生較露天栽培發生時期更長,甚至設施栽培者終年皆會發生,白粉病最初會在葉片上產生白粉狀斑點,隨後白粉漸濃,病斑漸擴大且相互連結佈滿葉片,造成作物無法光合作用,最終使葉片枯黃,嚴重時病斑可蔓延至葉柄、莖及果實,進而減低作物品質及產量,籲請農友加強防治。"
           },
           {
            "content": 
"防治建議:化學防治請選用核准登記及推薦使用藥劑,藥劑種類可於臺南區農業改良場網站連結各項作物的用藥資料:https://www.tndais.gov.tw/ws.php?id=382。使用藥劑應嚴格遵守安全採收期。(資料來源:雲林縣政府、行政院農業委員會動植物防疫檢疫局)"
           }
          ]
         },
         {
          "content": "掌握秋行軍蟲防治黃金時期正確施藥,確保農友收益:",
          "subsection": [
           {
            "content": 
"「秋行軍蟲災害緊急應變小組」(簡稱應變小組)表示,秋行軍蟲偏好取食植株幼嫩時期,於作物苗期階段,早期發現,正確防治,效果最佳。秋行軍蟲習性與斜紋夜蛾差異大,鑽入植株心葉即不移動,防治斜紋夜蛾之施藥方法對秋行軍蟲效果並不好,農友應重新調整。此外,用藥時機及藥劑種類與防治效果有密切相關,目前公告之秋行軍蟲緊急防治藥劑多屬觸殺型藥劑,農友施用時須慎選施藥機具及方法,藥劑用水量須足夠,且放慢施藥速度,須確保藥劑能滲入心葉,接觸蟲體,防治效果才會好。農友如有防治相關技術問題,均可就近洽詢農委會所屬各區農業改良場專家。"
           },
           {
            "content": 
"為確保秋行軍蟲公告緊急防治藥劑之防治效果,亦借重國立臺灣大學、中興大學、嘉義大學及屏東科技大學四所大學植物醫師團隊之專業人才,執行玉米及高粱秋行軍蟲緊急防治藥劑田間藥效試驗,結果證實於作物受害初期之苗期階段時,選用適當機具且正確使用防治藥劑情況下,均有良好防治成效。"
           },
           {
            "content": 
"應變小組強調,有機田區核准使用之蘇力菌因作用機制屬於中腸毒性,須經蟲體攝食後才有毒殺效果,當施用時機過晚,蟲體如已蛀入心葉後,防治效果則相對較差,農友應多加留意;因秋行軍蟲易產生抗藥性,防治應輪替使用不同作用機制藥劑。為協助農民正確施藥,以達最佳防治效果,農委會所屬各區農業改良場均有提供相關諮詢服務及用藥技術指導,農友有需求可於上班時間撥打各區農業改良場諮詢專線(行政院農業委員會桃園區農業改良場03-4760852;苗栗區農業改良場037-236619;臺中區農業改良場04-8523101;臺南區農業改良場06-5912901;高雄區農業改良場08-7389060;花蓮區農業改良場03-8535915;臺東區農業改良場089-325110),農委會動植物防疫檢疫局另提供24小時免付費專線0800-039-131。"
           },
           {
            "content": 
"為防杜秋行軍蟲蔓延危害,種植玉米農友應主動赴田間主動巡查,如有發現疑似秋行軍蟲個體,可透過防檢局防疫小尖兵臉書或防檢局LINE@進行通報並上傳照片、影像,以利快速鑑定並採取緊急防治措施;另為提升農民秋行軍蟲辨識及自主管理能力,農委會所屬試驗場所及各地方政府針對重點產區持續密集辦理秋行軍蟲宣導講習。"
           },
           {
            "content": 
"截至11月5日止,全國各縣市共有秋行軍蟲幼蟲確診案場發生面積共約12,924公頃;其中管制面積12,876公頃,解列面積48公頃;已處理面積8,792公頃,待處理面積4,132公頃。秋行軍蟲相關疫情資訊,每日更新於「秋行軍蟲專區」(網址:http://faw.baphiq.gov.tw/)。(參考資料來源:行政院農業委員會動植物防疫檢疫局)"
           }
          ]
         },
         {
          "content": "行政院農業委員會動植物防疫檢疫局(以下簡稱防檢局)為協助農友及時掌握疫情現況並提早預為因應,已建構完成疫情簡易燈號資訊服務網,並透過不同燈號提供疫情最新現況資訊,提供農友參考:",
          "subsection": [
           {
            "content": "「綠燈」表示尚無該疫病情及發生風險。"
           },
           {
            "content": "「藍燈」表示環境適合該疫病發生,應加強注意及早防範。"
           },
           {
            "content": "「黃燈」表示田間已有部分該疫病輕度危害,可能發生流行性疫情,應加強注意田間疫情現況並適時進行防治。"
           },
           {
            "content": "「紅燈」表示該疫病已於田間大規模發生,應立即加強防治措施,否則將對收穫造成重大損失。"
           },
           {
            "content": "為強化水稻疫情之預警措施,防檢局即時將相關疫情資訊建置於該局植物疫情民眾服務站—水稻疫情預警圖。(https://phis.baphiq.gov.tw/WebEvery.nsf/index)"
           }
          ]
         },
         {
          "content": "擴大推動養殖漁業保險,落實照顧漁民福祉:",
          "subsection": [
           {
            "content": 
"漁業署自106年起試辦養殖漁業保險,與產險公司合作規劃,並與養殖團體、縣市政府及產險公司多次協商,決定以符合漁民需求推行氣候(豪雨、寒害)參數型保險,至今已推動高雄、屏東降水量參數保險及石斑魚(嘉義、臺南、高雄及屏東)、虱目魚(彰化、雲林、嘉義、臺南、高雄及屏東)溫度參數型保險,以解決勘災問題,及降低漁民生產風險。"
           },
           {
            "content": "現下天氣漸涼,今年石斑魚、虱目魚溫度參數型保險刻正開賣中(至11月10日),請漁友把握機會。另為擴大養殖物種保險範圍,目前漁業署刻與農金局及產險公司規劃溫度參數型保險養殖物種納入鱸魚、吳郭魚,以嘉惠更多養殖漁友。"
           },
           {
            "content": 
"漁業署指出,將持續與各地方政府推動及輔導漁友投保養殖漁業保險,亦鼓勵各地方政府與產險公司共同開發適合該轄區之參數型保險,期透過相關單位共同合作推廣養殖漁業保險觀念及制度,保障養殖漁友財產安全,並提升產業面臨災害之調適力,確保產業永續發展。(資料來源:行政院農業委員會漁業署)"
           }
          ]
         }
        ]
       }
      },
      "remark": [
       "註1:天氣預報中,各縣市預報以各縣市政府所在地附近為預報參考位置。",
       "註2:天氣預報高低氣溫出現同值時,表示兩者差距在1℃以內。",
       "註3:度日(Degree-days):植物發育時所需之有效溫度單位。",
       "註4:積溫:植物發育過程中,當各生育階段有效溫度累積至一定數值時,即可完成發育。該數值即稱為此一發育階段所需的積溫。",
       "註5:分別以臺中區農改場、高雄區農改場及花蓮區農改場所進行豐欠試驗稻作和氣象觀測資料進行稻作積溫值計算。",
       "註6:稻作積溫值計算出現「-」符號表示該地目前尚未插秧或已經收割。",
       "註7:稻作最低、最高生長溫度以10℃、40℃為基準。"
      ]
     }
    }
   }
  }
 }
}
