{
 "cwbdata": {
  "@xmlns": "urn:cwb.gov.tw:cwbdata-0.1",
  "@xmlns:xsi": "http://www.w3.org/2001/XMLSchema-instance",
  "@xsi:schemaLocation": "urn:cwb.gov.tw:cwbdata-0.1 http://odtest.cwb.gov.tw/XSD/CWB-data-0.1.xsd",
  "identifier": "472c7047-eb48-4aa1-8fc0-9be46a234889",
  "datasetID": "F-AMD-2001",
  "datasetName": "農業氣象預報",
  "dataItemID": "F-AMD-2001-00001",
  "sender": "weather@cwb.gov.tw",
  "sent": "2019-12-12T16:53:33+08:00",
  "status": "Actual",
  "scope": "Public",
  "msgType": "Issue",
  "publisherOID": "2.16.886.101.20003.20008.20004",
  "resources": {
   "resource": {
    "metadata": {
     "resourceName": "中央氣象局氣候服務_農業氣象一週預報",
     "resourceDescription": "提供氣象局預報資料和農事建議，供農業相關單位及農民參考",
     "language": "zh",
     "homepage": "https://www.cwb.gov.tw/V7/forecast/week/w44.htm",
     "sources": {
      "source": [
       {
        "title": "1週預報",
        "path": "https://www.cwb.gov.tw/V7/forecast/week/week.htm"
       },
       {
        "title": "長期天氣預報-季長期天氣展望",
        "path": "https://opendata.cwb.gov.tw/catalog%3fgroup%3df%26dataid%3dA0013-002"
       },
       {
        "title": "天氣特報-豪大雨特報",
        "path": "https://opendata.cwb.gov.tw/catalog%3fgroup%3dw%26dataid%3dC0033-003"
       }
      ]
     },
     "temporal": {
      "issueTime": "2019-12-12T17:00:00+08:00",
      "validTime": {
       "startTime": "2019-12-13T00:00:00+08:00",
       "endTime": "2019-12-20T00:00:00+08:00"
      }
     },
     "weatherElements": {
      "weatherElement": [
       {
        "tagName": "weather",
        "description": "天氣描述"
       },
       {
        "tagName": "temperature",
        "description": "氣溫",
        "units": "˚C"
       },
       {
        "tagName": "agrWeatherForecasts",
        "description": "一週農業天氣預報"
       },
       {
        "tagName": "weatherProfile",
        "description": "天氣概況"
       },
       {
        "tagName": "weatherForecasts",
        "description": "天氣預報"
       },
       {
        "tagName": "agrAdvices",
        "description": "農事建議"
       },
       {
        "tagName": "degreeDay",
        "description": "度日(植物發育時所需之有效溫度單位)",
        "units": "GDD"
       },
       {
        "tagName": "accumulatedTemperature",
        "description": "積溫(植物發育過程中，當各生育階段有效溫度累積至一定數值時，即可完成發育。該數值即稱為此一發育階段所需的積溫。)",
        "units": "ATU"
       },
       {
        "tagName": "cardinalTemperatures",
        "description": "作物生長溫度區間",
        "units": "˚C",
        "statisticalMethods": {
         "statisticalMethod": [
          {
           "methodTagName": "minimum",
           "description": "生長最低溫"
          },
          {
           "methodTagName": "maximum",
           "description": "生長最高溫"
          },
          {
           "methodTagName": "optimum",
           "description": "生長最適溫"
          }
         ]
        }
       },
       {
        "tagName": "growingDays",
        "description": "生育日數"
       },
       {
        "tagName": "cropStatistics",
        "description": "農業積溫統計"
       },
       {
        "tagName": "agrReport",
        "description": "其他建議"
       },
       {
        "tagName": "section",
        "description": "其他建議主段落"
       },
       {
        "tagName": "subsection",
        "description": "其他建議副段落"
       }
      ]
     }
    },
    "data": {
     "agrWeatherForecasts": {
      "weatherProfile": "13日、14日東北季風減弱,各地早晚天氣仍涼,中南部日夜溫差大;各地大多為多雲到晴的天氣,僅東半部地區及北部山區有局部短暫雨。15日至18日各地大多為晴到多雲,日夜溫差大,僅東半部地區有零星短暫雨。19日北部及東半部地區有局部短暫雨,其他地區為多雲到晴,中南部日夜溫差大。",
      "weatherForecasts": {
       "location": [
        {
         "locationName": "北部地區",
         "weatherElements": {
          "Wx": {
           "daily": [
            {
             "dataDate": "2019-12-13",
             "weather": "晴時多雲",
             "weatherid": "2"
            },
            {
             "dataDate": "2019-12-14",
             "weather": "晴時多雲",
             "weatherid": "2"
            },
            {
             "dataDate": "2019-12-15",
             "weather": "晴時多雲",
             "weatherid": "2"
            },
            {
             "dataDate": "2019-12-16",
             "weather": "晴時多雲",
             "weatherid": "2"
            },
            {
             "dataDate": "2019-12-17",
             "weather": "晴時多雲",
             "weatherid": "2"
            },
            {
             "dataDate": "2019-12-18",
             "weather": "晴時多雲",
             "weatherid": "2"
            },
            {
             "dataDate": "2019-12-19",
             "weather": "多雲時陰短暫雨",
             "weatherid": "9"
            }
           ]
          },
          "MaxT": {
           "daily": [
            {
             "dataDate": "2019-12-13",
             "temperature": "26"
            },
            {
             "dataDate": "2019-12-14",
             "temperature": "26"
            },
            {
             "dataDate": "2019-12-15",
             "temperature": "28"
            },
            {
             "dataDate": "2019-12-16",
             "temperature": "28"
            },
            {
             "dataDate": "2019-12-17",
             "temperature": "28"
            },
            {
             "dataDate": "2019-12-18",
             "temperature": "27"
            },
            {
             "dataDate": "2019-12-19",
             "temperature": "24"
            }
           ]
          },
          "MinT": {
           "daily": [
            {
             "dataDate": "2019-12-13",
             "temperature": "13"
            },
            {
             "dataDate": "2019-12-14",
             "temperature": "13"
            },
            {
             "dataDate": "2019-12-15",
             "temperature": "15"
            },
            {
             "dataDate": "2019-12-16",
             "temperature": "16"
            },
            {
             "dataDate": "2019-12-17",
             "temperature": "15"
            },
            {
             "dataDate": "2019-12-18",
             "temperature": "16"
            },
            {
             "dataDate": "2019-12-19",
             "temperature": "16"
            }
           ]
          }
         }
        },
        {
         "locationName": "中部地區",
         "weatherElements": {
          "Wx": {
           "daily": [
            {
             "dataDate": "2019-12-13",
             "weather": "晴時多雲",
             "weatherid": "2"
            },
            {
             "dataDate": "2019-12-14",
             "weather": "晴時多雲",
             "weatherid": "2"
            },
            {
             "dataDate": "2019-12-15",
             "weather": "晴時多雲",
             "weatherid": "2"
            },
            {
             "dataDate": "2019-12-16",
             "weather": "晴時多雲",
             "weatherid": "2"
            },
            {
             "dataDate": "2019-12-17",
             "weather": "晴時多雲",
             "weatherid": "2"
            },
            {
             "dataDate": "2019-12-18",
             "weather": "晴時多雲",
             "weatherid": "2"
            },
            {
             "dataDate": "2019-12-19",
             "weather": "晴時多雲",
             "weatherid": "2"
            }
           ]
          },
          "MaxT": {
           "daily": [
            {
             "dataDate": "2019-12-13",
             "temperature": "29"
            },
            {
             "dataDate": "2019-12-14",
             "temperature": "28"
            },
            {
             "dataDate": "2019-12-15",
             "temperature": "29"
            },
            {
             "dataDate": "2019-12-16",
             "temperature": "30"
            },
            {
             "dataDate": "2019-12-17",
             "temperature": "30"
            },
            {
             "dataDate": "2019-12-18",
             "temperature": "29"
            },
            {
             "dataDate": "2019-12-19",
             "temperature": "28"
            }
           ]
          },
          "MinT": {
           "daily": [
            {
             "dataDate": "2019-12-13",
             "temperature": "13"
            },
            {
             "dataDate": "2019-12-14",
             "temperature": "14"
            },
            {
             "dataDate": "2019-12-15",
             "temperature": "16"
            },
            {
             "dataDate": "2019-12-16",
             "temperature": "17"
            },
            {
             "dataDate": "2019-12-17",
             "temperature": "16"
            },
            {
             "dataDate": "2019-12-18",
             "temperature": "17"
            },
            {
             "dataDate": "2019-12-19",
             "temperature": "17"
            }
           ]
          }
         }
        },
        {
         "locationName": "南部地區",
         "weatherElements": {
          "Wx": {
           "daily": [
            {
             "dataDate": "2019-12-13",
             "weather": "晴時多雲",
             "weatherid": "2"
            },
            {
             "dataDate": "2019-12-14",
             "weather": "晴時多雲",
             "weatherid": "2"
            },
            {
             "dataDate": "2019-12-15",
             "weather": "晴時多雲",
             "weatherid": "2"
            },
            {
             "dataDate": "2019-12-16",
             "weather": "晴時多雲",
             "weatherid": "2"
            },
            {
             "dataDate": "2019-12-17",
             "weather": "晴時多雲",
             "weatherid": "2"
            },
            {
             "dataDate": "2019-12-18",
             "weather": "晴時多雲",
             "weatherid": "2"
            },
            {
             "dataDate": "2019-12-19",
             "weather": "晴時多雲",
             "weatherid": "2"
            }
           ]
          },
          "MaxT": {
           "daily": [
            {
             "dataDate": "2019-12-13",
             "temperature": "29"
            },
            {
             "dataDate": "2019-12-14",
             "temperature": "28"
            },
            {
             "dataDate": "2019-12-15",
             "temperature": "30"
            },
            {
             "dataDate": "2019-12-16",
             "temperature": "30"
            },
            {
             "dataDate": "2019-12-17",
             "temperature": "30"
            },
            {
             "dataDate": "2019-12-18",
             "temperature": "29"
            },
            {
             "dataDate": "2019-12-19",
             "temperature": "29"
            }
           ]
          },
          "MinT": {
           "daily": [
            {
             "dataDate": "2019-12-13",
             "temperature": "16"
            },
            {
             "dataDate": "2019-12-14",
             "temperature": "17"
            },
            {
             "dataDate": "2019-12-15",
             "temperature": "17"
            },
            {
             "dataDate": "2019-12-16",
             "temperature": "18"
            },
            {
             "dataDate": "2019-12-17",
             "temperature": "18"
            },
            {
             "dataDate": "2019-12-18",
             "temperature": "18"
            },
            {
             "dataDate": "2019-12-19",
             "temperature": "17"
            }
           ]
          }
         }
        },
        {
         "locationName": "東北部地區",
         "weatherElements": {
          "Wx": {
           "daily": [
            {
             "dataDate": "2019-12-13",
             "weather": "多雲",
             "weatherid": "4"
            },
            {
             "dataDate": "2019-12-14",
             "weather": "陰時多雲短暫雨",
             "weatherid": "10"
            },
            {
             "dataDate": "2019-12-15",
             "weather": "晴時多雲",
             "weatherid": "2"
            },
            {
             "dataDate": "2019-12-16",
             "weather": "晴時多雲",
             "weatherid": "2"
            },
            {
             "dataDate": "2019-12-17",
             "weather": "晴時多雲",
             "weatherid": "2"
            },
            {
             "dataDate": "2019-12-18",
             "weather": "晴時多雲",
             "weatherid": "2"
            },
            {
             "dataDate": "2019-12-19",
             "weather": "多雲時陰短暫雨",
             "weatherid": "9"
            }
           ]
          },
          "MaxT": {
           "daily": [
            {
             "dataDate": "2019-12-13",
             "temperature": "24"
            },
            {
             "dataDate": "2019-12-14",
             "temperature": "23"
            },
            {
             "dataDate": "2019-12-15",
             "temperature": "24"
            },
            {
             "dataDate": "2019-12-16",
             "temperature": "27"
            },
            {
             "dataDate": "2019-12-17",
             "temperature": "28"
            },
            {
             "dataDate": "2019-12-18",
             "temperature": "27"
            },
            {
             "dataDate": "2019-12-19",
             "temperature": "24"
            }
           ]
          },
          "MinT": {
           "daily": [
            {
             "dataDate": "2019-12-13",
             "temperature": "16"
            },
            {
             "dataDate": "2019-12-14",
             "temperature": "17"
            },
            {
             "dataDate": "2019-12-15",
             "temperature": "18"
            },
            {
             "dataDate": "2019-12-16",
             "temperature": "17"
            },
            {
             "dataDate": "2019-12-17",
             "temperature": "18"
            },
            {
             "dataDate": "2019-12-18",
             "temperature": "17"
            },
            {
             "dataDate": "2019-12-19",
             "temperature": "18"
            }
           ]
          }
         }
        },
        {
         "locationName": "東部地區",
         "weatherElements": {
          "Wx": {
           "daily": [
            {
             "dataDate": "2019-12-13",
             "weather": "晴時多雲",
             "weatherid": "2"
            },
            {
             "dataDate": "2019-12-14",
             "weather": "多雲時陰",
             "weatherid": "5"
            },
            {
             "dataDate": "2019-12-15",
             "weather": "晴時多雲",
             "weatherid": "2"
            },
            {
             "dataDate": "2019-12-16",
             "weather": "晴時多雲",
             "weatherid": "2"
            },
            {
             "dataDate": "2019-12-17",
             "weather": "晴時多雲",
             "weatherid": "2"
            },
            {
             "dataDate": "2019-12-18",
             "weather": "晴時多雲",
             "weatherid": "2"
            },
            {
             "dataDate": "2019-12-19",
             "weather": "多雲時晴",
             "weatherid": "3"
            }
           ]
          },
          "MaxT": {
           "daily": [
            {
             "dataDate": "2019-12-13",
             "temperature": "24"
            },
            {
             "dataDate": "2019-12-14",
             "temperature": "24"
            },
            {
             "dataDate": "2019-12-15",
             "temperature": "23"
            },
            {
             "dataDate": "2019-12-16",
             "temperature": "26"
            },
            {
             "dataDate": "2019-12-17",
             "temperature": "28"
            },
            {
             "dataDate": "2019-12-18",
             "temperature": "26"
            },
            {
             "dataDate": "2019-12-19",
             "temperature": "24"
            }
           ]
          },
          "MinT": {
           "daily": [
            {
             "dataDate": "2019-12-13",
             "temperature": "17"
            },
            {
             "dataDate": "2019-12-14",
             "temperature": "18"
            },
            {
             "dataDate": "2019-12-15",
             "temperature": "18"
            },
            {
             "dataDate": "2019-12-16",
             "temperature": "18"
            },
            {
             "dataDate": "2019-12-17",
             "temperature": "19"
            },
            {
             "dataDate": "2019-12-18",
             "temperature": "19"
            },
            {
             "dataDate": "2019-12-19",
             "temperature": "19"
            }
           ]
          }
         }
        },
        {
         "locationName": "東南部地區",
         "weatherElements": {
          "Wx": {
           "daily": [
            {
             "dataDate": "2019-12-13",
             "weather": "晴時多雲",
             "weatherid": "2"
            },
            {
             "dataDate": "2019-12-14",
             "weather": "晴時多雲",
             "weatherid": "2"
            },
            {
             "dataDate": "2019-12-15",
             "weather": "多雲時晴",
             "weatherid": "3"
            },
            {
             "dataDate": "2019-12-16",
             "weather": "晴時多雲",
             "weatherid": "2"
            },
            {
             "dataDate": "2019-12-17",
             "weather": "晴時多雲",
             "weatherid": "2"
            },
            {
             "dataDate": "2019-12-18",
             "weather": "晴時多雲",
             "weatherid": "2"
            },
            {
             "dataDate": "2019-12-19",
             "weather": "多雲短暫雨",
             "weatherid": "8"
            }
           ]
          },
          "MaxT": {
           "daily": [
            {
             "dataDate": "2019-12-13",
             "temperature": "25"
            },
            {
             "dataDate": "2019-12-14",
             "temperature": "25"
            },
            {
             "dataDate": "2019-12-15",
             "temperature": "24"
            },
            {
             "dataDate": "2019-12-16",
             "temperature": "27"
            },
            {
             "dataDate": "2019-12-17",
             "temperature": "27"
            },
            {
             "dataDate": "2019-12-18",
             "temperature": "27"
            },
            {
             "dataDate": "2019-12-19",
             "temperature": "26"
            }
           ]
          },
          "MinT": {
           "daily": [
            {
             "dataDate": "2019-12-13",
             "temperature": "17"
            },
            {
             "dataDate": "2019-12-14",
             "temperature": "19"
            },
            {
             "dataDate": "2019-12-15",
             "temperature": "19"
            },
            {
             "dataDate": "2019-12-16",
             "temperature": "19"
            },
            {
             "dataDate": "2019-12-17",
             "temperature": "19"
            },
            {
             "dataDate": "2019-12-18",
             "temperature": "19"
            },
            {
             "dataDate": "2019-12-19",
             "temperature": "19"
            }
           ]
          }
         }
        }
       ]
      },
      "agrAdvices": {
       "agrForecasts": {
        "location": [
         {
          "locationName": "北部地區",
          "weatherElements": {
           "daily": [
            {
             "dataDate": "2019-12-13",
             "degreeDay": "9.5",
             "accumulatedTemperature": "9.5"
            },
            {
             "dataDate": "2019-12-14",
             "degreeDay": "9.5",
             "accumulatedTemperature": "19.0"
            },
            {
             "dataDate": "2019-12-15",
             "degreeDay": "11.5",
             "accumulatedTemperature": "30.5"
            },
            {
             "dataDate": "2019-12-16",
             "degreeDay": "12.0",
             "accumulatedTemperature": "42.5"
            },
            {
             "dataDate": "2019-12-17",
             "degreeDay": "11.5",
             "accumulatedTemperature": "54.0"
            },
            {
             "dataDate": "2019-12-18",
             "degreeDay": "11.5",
             "accumulatedTemperature": "65.5"
            },
            {
             "dataDate": "2019-12-19",
             "degreeDay": "10.0",
             "accumulatedTemperature": "75.5"
            }
           ]
          }
         },
         {
          "locationName": "中部地區",
          "weatherElements": {
           "daily": [
            {
             "dataDate": "2019-12-13",
             "degreeDay": "11.0",
             "accumulatedTemperature": "11.0"
            },
            {
             "dataDate": "2019-12-14",
             "degreeDay": "11.0",
             "accumulatedTemperature": "22.0"
            },
            {
             "dataDate": "2019-12-15",
             "degreeDay": "12.5",
             "accumulatedTemperature": "34.5"
            },
            {
             "dataDate": "2019-12-16",
             "degreeDay": "13.5",
             "accumulatedTemperature": "48.0"
            },
            {
             "dataDate": "2019-12-17",
             "degreeDay": "13.0",
             "accumulatedTemperature": "61.0"
            },
            {
             "dataDate": "2019-12-18",
             "degreeDay": "13.0",
             "accumulatedTemperature": "74.0"
            },
            {
             "dataDate": "2019-12-19",
             "degreeDay": "12.5",
             "accumulatedTemperature": "86.5"
            }
           ]
          }
         },
         {
          "locationName": "南部地區",
          "weatherElements": {
           "daily": [
            {
             "dataDate": "2019-12-13",
             "degreeDay": "12.5",
             "accumulatedTemperature": "12.5"
            },
            {
             "dataDate": "2019-12-14",
             "degreeDay": "12.5",
             "accumulatedTemperature": "25.0"
            },
            {
             "dataDate": "2019-12-15",
             "degreeDay": "13.5",
             "accumulatedTemperature": "38.5"
            },
            {
             "dataDate": "2019-12-16",
             "degreeDay": "14.0",
             "accumulatedTemperature": "52.5"
            },
            {
             "dataDate": "2019-12-17",
             "degreeDay": "14.0",
             "accumulatedTemperature": "66.5"
            },
            {
             "dataDate": "2019-12-18",
             "degreeDay": "13.5",
             "accumulatedTemperature": "80.0"
            },
            {
             "dataDate": "2019-12-19",
             "degreeDay": "13.0",
             "accumulatedTemperature": "93.0"
            }
           ]
          }
         },
         {
          "locationName": "東北部地區",
          "weatherElements": {
           "daily": [
            {
             "dataDate": "2019-12-13",
             "degreeDay": "10.0",
             "accumulatedTemperature": "10.0"
            },
            {
             "dataDate": "2019-12-14",
             "degreeDay": "10.0",
             "accumulatedTemperature": "20.0"
            },
            {
             "dataDate": "2019-12-15",
             "degreeDay": "11.0",
             "accumulatedTemperature": "31.0"
            },
            {
             "dataDate": "2019-12-16",
             "degreeDay": "12.0",
             "accumulatedTemperature": "43.0"
            },
            {
             "dataDate": "2019-12-17",
             "degreeDay": "13.0",
             "accumulatedTemperature": "56.0"
            },
            {
             "dataDate": "2019-12-18",
             "degreeDay": "12.0",
             "accumulatedTemperature": "68.0"
            },
            {
             "dataDate": "2019-12-19",
             "degreeDay": "11.0",
             "accumulatedTemperature": "79.0"
            }
           ]
          }
         },
         {
          "locationName": "東部地區",
          "weatherElements": {
           "daily": [
            {
             "dataDate": "2019-12-13",
             "degreeDay": "10.5",
             "accumulatedTemperature": "10.5"
            },
            {
             "dataDate": "2019-12-14",
             "degreeDay": "11.0",
             "accumulatedTemperature": "21.5"
            },
            {
             "dataDate": "2019-12-15",
             "degreeDay": "10.5",
             "accumulatedTemperature": "32.0"
            },
            {
             "dataDate": "2019-12-16",
             "degreeDay": "12.0",
             "accumulatedTemperature": "44.0"
            },
            {
             "dataDate": "2019-12-17",
             "degreeDay": "13.5",
             "accumulatedTemperature": "57.5"
            },
            {
             "dataDate": "2019-12-18",
             "degreeDay": "12.5",
             "accumulatedTemperature": "70.0"
            },
            {
             "dataDate": "2019-12-19",
             "degreeDay": "11.5",
             "accumulatedTemperature": "81.5"
            }
           ]
          }
         },
         {
          "locationName": "東南部地區",
          "weatherElements": {
           "daily": [
            {
             "dataDate": "2019-12-13",
             "degreeDay": "11.0",
             "accumulatedTemperature": "11.0"
            },
            {
             "dataDate": "2019-12-14",
             "degreeDay": "12.0",
             "accumulatedTemperature": "23.0"
            },
            {
             "dataDate": "2019-12-15",
             "degreeDay": "11.5",
             "accumulatedTemperature": "34.5"
            },
            {
             "dataDate": "2019-12-16",
             "degreeDay": "13.0",
             "accumulatedTemperature": "47.5"
            },
            {
             "dataDate": "2019-12-17",
             "degreeDay": "13.0",
             "accumulatedTemperature": "60.5"
            },
            {
             "dataDate": "2019-12-18",
             "degreeDay": "13.0",
             "accumulatedTemperature": "73.5"
            },
            {
             "dataDate": "2019-12-19",
             "degreeDay": "12.5",
             "accumulatedTemperature": "86.0"
            }
           ]
          }
         }
        ]
       },
       "cropStatistics": {
        "crop": {
         "cropName": "水稻",
         "cardinalTemperatures": {
          "growingStage": {
           "description": "稻作生長溫度",
           "minimum": "10",
           "maximum": "40"
          }
         },
         "location": [
          {
           "locationName": "花蓮地區",
           "cropBreed": "臺農67號",
           "statistics": {
            "fifteenYears": {
             "description": "二期稻作生育日數及生育期總積溫(15年平均值)",
             "timePeriod": [
              {
               "description": "插秧至抽穗",
               "growingDays": "71",
               "accumulatedTemperature": "1184.31"
              },
              {
               "description": "插秧至收穫",
               "growingDays": "119",
               "accumulatedTemperature": "1778.01"
              }
             ]
            },
            "thisYear": {
             "description": "108年二期稻作積溫值 (各改良場豐歉試驗臺農67號)",
             "dibblingDate": "-",
             "timePeriod": {
              "description": "插秧至本日",
              "startDate": "-",
              "endDate": "2019-12-11",
              "growingDays": "-",
              "accumulatedTemperature": "-"
             }
            }
           }
          },
          {
           "locationName": "臺中地區",
           "cropBreed": "臺農67號",
           "statistics": {
            "fifteenYears": {
             "description": "二期稻作生育日數及生育期總積溫(15年平均值)",
             "timePeriod": [
              {
               "description": "插秧至抽穗",
               "growingDays": "66",
               "accumulatedTemperature": "1203.35"
              },
              {
               "description": "插秧至收穫",
               "growingDays": "107",
               "accumulatedTemperature": "1794.83"
              }
             ]
            },
            "thisYear": {
             "description": "108年二期稻作積溫值 (各改良場豐歉試驗臺農67號)",
             "dibblingDate": "-",
             "timePeriod": {
              "description": "插秧至本日",
              "startDate": "-",
              "endDate": "2019-12-11",
              "growingDays": "-",
              "accumulatedTemperature": "-"
             }
            }
           }
          },
          {
           "locationName": "高雄地區",
           "cropBreed": "臺農67號",
           "statistics": {
            "fifteenYears": {
             "description": "二期稻作生育日數及生育期總積溫(15年平均值)",
             "timePeriod": [
              {
               "description": "插秧至抽穗",
               "growingDays": "71",
               "accumulatedTemperature": "1346.24"
              },
              {
               "description": "插秧至收穫",
               "growingDays": "104",
               "accumulatedTemperature": "1922.81"
              }
             ]
            },
            "thisYear": {
             "description": "108年二期稻作積溫值 (各改良場豐歉試驗臺農67號)",
             "dibblingDate": "-",
             "timePeriod": {
              "description": "插秧至本日",
              "startDate": "-",
              "endDate": "2019-12-11",
              "growingDays": "-",
              "accumulatedTemperature": "-"
             }
            }
           }
          }
         ]
        }
       },
       "agrReport": {
        "section": [
         {
          "content": "明日、週六東北季風減弱,不過各地早晚天氣仍涼,中南部日夜溫差大,各地大多為多雲到晴的天氣,僅東半部及北部山區有零星陣雨。而下週日至週三,各地大多為晴到多雲的天氣,僅東半部地區有零星短暫雨。近日各地日夜溫差大,籲請農友留意溫差變化對各類作物之影響:",
          "subsection": [
           {
            "content": "籲請農友持續加強田間作物病蟲害防治,以確保農作收益。請特別留意田間綜合管理(IPM)、合理化施肥之重要性;採溫(網)室等設施栽培之地區請注意溫度調節,以利作物生長。"
           },
           {
            "content": "時序將進入冬季,預期降雨量將減少、請節約用水,有效應用水資源。"
           },
           {
            "content": "近期各類作物田間管理措施分述如下,供農友參考-1、水稻:二期稻作已屆收穫期地區農友與代耕業者可利用天氣相對穩定時進行收割作業,當稻穀呈現金黃色,僅末端2∼3粒稻穀黃綠色時,為最佳收穫期。適時收穫稻穀飽滿度高、品質佳、濕度低折算乾穀重量多、收益增加;籲請農友將收獲後之稻稈翻埋入田中,請勿露天燃燒以維護環境品質,並避免因違反「空氣污染防治法」之規定而受罰。2、雜糧、園藝(含各類果樹、蔬菜)作物:田區、園區宜適度給水供灌與適時各類病蟲害之預防,並適時收穫、乾燥、調製。"
           },
           {
            "content": "籲請農友參考本局提供更精細之368鄉鎮天氣預報資訊,以有效規劃相關作業。"
           }
          ]
         },
         {
          "content": "籲請種植芭樂與相關作物農友留意粉介殼蟲防治:",
          "subsection": [
           {
            "content": "番石榴栽培品種甚多,品質優良,為消費大眾所喜歡,是臺灣重要經濟果樹之一,然於栽培期間,經常遭受粉介殼蟲危害,農友常需施藥防治始能確保果實品質與產量,惟粉介殼蟲因體被粉狀或棉狀臘質物,喜歡聚集棲息於寄主縫隙部位,常造成化學防治效果不彰。"
           },
           {
            "content": "危害情形:若蟲及成蟲性喜歡棲居於枝椏、葉背、葉腋及果實等部位,吸食植株養液,分泌大量蜜露引發煤煙病,污染葉片與果實,影響光合作用,致被害枝葉生長不良,提早落葉、落果或果味變酸,影響果實品質與產量。"
           },
           {
            "content": "寄主:超過250種寄主植物,主要有番石榴、柑桔、釋迦、香蕉、葡萄、芒果、榴槤、咖啡、可可、大豆、玉米、馬鈴薯、山藥、觀賞花卉植物等。"
           },
           {
            "content": "好發條件:全年皆可發生危害,常於11月至翌年5月低溫乾燥期間猖獗危害,7∼9月高溫多雨期間族群密度較低。"
           },
           {
            "content": "防治方法:1、耕作防治:平時注意植株修剪,使植株通風及日照良好。2、物理防治:果實套袋前宜徹底施藥防治,以免套袋後粉介殼蟲潛藏於套袋內滋生危害果實。3、生物防治:田間的捕食性天敵包括蒙氏瓢蟲(Cryptolaemus montrouzier Mulsant)、二星小黑瓢蟲(Scymnus ryuguns Kamira)、安平草蛉(Chrysopaboninensis Okanioto)及廣角跳小蜂(Anagyrus sawadai Inshii)等寄生蜂時,應予保護。4、化學防治:介殼蟲發生時參照植物保護手冊https://otserv2.tactri.gov.tw/PPM/推薦藥劑,並注意安全採收期;核准藥劑施用濃度與方式請務必依照推薦方法。(參考資料來源:行政院農業委員會、植物保護圖鑑系列)"
           }
          ]
         },
         {
          "content": "嚴防「瓜果實蠅、夜蛾類」疫情發生,籲請農友持續加強防疫工作:",
          "subsection": [
           {
            "content": "雨後適合瓜果實蠅及夜蛾類發生,請務必全面加強防疫工作,嚴防疫情發生。"
           },
           {
            "content": "夜蛾類,包括斜紋夜蛾、甜菜夜蛾、番茄夜蛾等三種害蟲,夜蛾類害蟲防治應注意下列事項:1、田間如發現夜蛾類害蟲卵塊、幼蟲,應立即捕殺或摘除。2、夜蛾類幼蟲及成蟲大多於太陽下山或傍晚時分開始活動,傍晚噴藥效果較佳,噴灑時應注意使用充足水量。3、參考植物保護資訊系統推薦用藥,選擇藥劑交互使用,以避免害蟲產生抗藥性。4、利用性費洛蒙長期誘殺雄蛾,以降低其田間密度。每公頃設5∼10個點,放置高度約為離地150公分或作物生長點上方30∼60公分,每月更新誘餌一次。作物種植密集地區應採共同防治,成效更佳。5、注意清園之工作,間作之作物應同時施藥,徹底清除蟲源。6、旱田作物於種植前整地翻犁後浸水一天以上,可將土中的蛹或幼蟲淹死。7、收穫前注意化學藥劑的使用,或改用蘇力菌防治,注意安全採收期,以免造成農藥殘留過量之問題。8、受害嚴重之綠肥作物或廢耕田區應儘速翻犁淹水,避免夜蛾類滋生蔓延。"
           },
           {
            "content": "果實蠅防治建請持續懸掛「含毒甲基丁香油」誘餌之滅雄技術,配合果園遮蔭處懸掛黃色誘蟲黏紙,壓制果實蠅族群發展,並隨時清除田間受害落果可避免孳生蟲源,果實即時套袋可阻隔果實蠅產卵。"
           },
           {
            "content": "瓜實蠅防治工作首重瓜園的田間衛生管理,種植前田間淹水,隨時清除落果,以避免孳生蟲源,或懸掛黃色黏板黏捕成蟲,亦可同時採取「克蠅」滅雄防治及減少孳生源,整合性管理壓制瓜實蠅危害。請選用核准登記及推薦使用的藥劑,藥劑種類可於臺南改良場網站連結各項作物的用藥資料:https://www.tndais.gov.tw/ws.php?id=382使用藥劑應嚴格遵守安全採收期。(參考資料來源:行政院農業委員會動植物防疫檢疫局、雲林縣政府、行政院農業委員會臺南區農業改良場)"
           }
          ]
         },
         {
          "content": "配合農業政策推動及產業發展,放寬專案農貸規定:",
          "subsection": [
           {
            "content": "農委會修正辦理政策性農業專案貸款辦法等相關規定,自本(108)年11月25日生效適用,以充分支應農漁業者營農所需資金,並減輕從農壓力,主要修正內容包含調高多項農、漁業經營之貸款額度、將青年從農創業貸款週轉金貸款期限由3年全面放寬至5年,其他貸款有關養殖石斑魚、海鱺、海金鯧、購置乳(種)牛、乳(種)羊及種豬週轉金貸款期限,同步由3年延長為5年。此次法規修正,希望營造良好的農業經營環境,鼓勵有意從農民眾投入農業工作。"
           },
           {
            "content": "農委會表示,本次修正專案農貸規定,包含調降貸款利率,放寬貸款對象、用途、期限、額度及區域限制等,重點說明如下:1、青年從農創業貸款:增訂週轉金得以循環動用,額度最高100萬元,貸款期限最長1年,非循環動用週轉金貸款期限一律延長為5年,專案輔導青年農民申請養殖類貸款之週轉金貸款額度,由200萬元調高為500萬元,以鼓勵青年投入農業經營,改善人力高齡化問題。2、輔導漁業經營貸款:漁船經營貸款額度,漁船整修由1,000萬元調高為1,600萬元,週轉金由每船噸3萬元調高為4萬元、每艘由1,000萬元調高為1,300萬元,汰建或購置玻璃纖維強化塑膠(FRP)材質漁船,由2,700萬元調高為3,500萬元,養殖漁業貸款額度,石斑魚及午仔魚生產設施設備,由每公頃100萬元調高為200萬元,石斑魚週轉金由每公頃300萬元調高為500萬元、每一借款人由1,800萬元調高為3,000萬元;為變更漁船經營漁業種類而購買汰建資格之資本支出納入貸款用途支應範圍,額度最高1,000萬元,以提升漁船航安及推動產業輔導政策。3、農民經營及產銷班貸款:納入18歲以上55歲以下之農漁民,具高中職以上學校農業科系畢業、申貸前5年內曾參加農業訓練滿80小時、曾獲農業獎項、具農場實習或有從事農業生產經驗者為貸款對象,以協助年齡逾45歲且不必具農漁會會員等資格之農漁民取得營農所需資金。4、導農糧業經營貸款:用途為改善或新建菇類栽培場,以設置屋頂型綠能設施之貸款案,貸款年利率由1.29%調降為1.04%;菇蕈類生產者之貸款額度,週轉金由200萬元調高為300萬元,採傳統菇舍栽培之資本支出由300萬元調高為500萬元;經溫網室設施補助計畫或輔導措施核定或審查通過者之每公頃貸款額度,由1,100萬元調高為1,300萬元,以推動農業綠能政策及符合菇類產業發展需求。5、提升畜禽產業經營貸款:增訂提升家禽產業經營類及雞蛋友善生產系統類之借款人應參加家禽禽流感保險規定,以穩定農民收益及維護國內生物安全。6、農民組織及農企業產銷經營及研發創新貸款:增訂曾獲科技農企業菁創獎之農民團體,與符合有機農業耕作方式,及通過有機(含轉型期)農產品驗證、列為設置大型蔬果理集貨包裝場計畫輔導之農民組織及農企業為貸款對象,以推動新農業政策及提升貸款審查作業效率。7、擴大家庭農場經營規模協助農民購買耕地貸款:放寬家庭農場經營耕地面積計算範圍,納入借款人共同生活戶內之祖父母所有耕地,以符實務需求。8、農家綜合貸款:放寬無信用部之漁會甲類會員得至會籍所屬漁會所在直轄市、縣(市)轄區內之其他設有信用部之漁會申貸本貸款,以保障該等會員權益。9、其他:養殖石斑魚、海鱺、海金鯧、購置乳(種)牛、乳(種)羊及種豬週轉金貸款期限,由3年延長為5年,以符產業實務需求;實際耕作者得檢具實際從事農業生產工作證明文件,以取代農地同意使用書或租約,以配合推動實耕政策。"
           },
           {
            "content": "農委會指出,初期營農必須面對較高的經營風險,目前已著手規劃擴大青年從農創業貸款免息優惠措施,內容為該項貸款之舊貸戶及新貸戶於貸款期間內享有5年免息,免息額度為200萬元,後續將辦理相關專案農貸規定修正,冀望在青年農民投入農業經營時,提供充裕的資金協助及優惠的貸款措施,從而營造更優質的農業友善環境,提高青年從農的意願。"
           },
           {
            "content": "農委會進一步說明,農業金融係支持農業政策推動,也是農業永續發展重要的一環,期藉由本次放寬專案農貸規定,以鼓勵從農並提升農業競爭力。農委會未來亦將持續滾動式檢討,適時調整專案農貸規定。有資金需求之農漁業者,可就近向當地農漁會信用部或全國農業金庫提出申請,青年農民並可至全國農業金庫青年從農專區之貸款媒合平台申請。如有相關貸款疑義,歡迎電洽以下服務專線:全國農業金庫:0972-590-951、農業信用保證基金:0963-619-301、農委會農業金融局:0933-239-983。(資料來源:行政院農業委員會)"
           }
          ]
         },
         {
          "content": "時值裡作小麥種植時節,呼籲農友加強秋行軍蟲田間巡查通報:",
          "subsection": [
           {
            "content": "「秋行軍蟲災害緊急應變小組」(簡稱應變小組)表示,目前國內即將進入冬季裡作小麥種植時節,為防範秋行軍蟲為害,籲請農友於播種後,小麥苗期階段加強田間巡查,如發現疑似秋行軍蟲為害,立即通報地方政府或改良場進行確認防治。另外,小麥秋行軍蟲防治整合性管理技術(IPM)及緊急防治藥劑,防檢局已完成緊急防治藥劑清單盤點,一旦有緊急防疫需求,將立即公告以利防治。"
           },
           {
            "content": "應變小組說明,秋行軍蟲迄今於國內雖僅為害玉米、高粱及百慕達草等3種作物紀錄,惟依國際文獻報告,該蟲寄主範圍廣泛,小麥亦為其主要寄主植物之一。自11月底起,國內已陸續進入冬季裡作小麥時節,依據107年統計資料顯示,其主要種植地區包括金門縣、臺南市、臺中市及彰化縣等11縣市,合計約2,500公頃,其中又以金門縣最多,約占全國小麥種植面積74%。為防範秋行軍蟲為害小麥,應變小組籲請農友於小麥播種後,加強苗期田間巡查,如發現疑似為害,應立即通報,即早發現,提早防治。依據金門縣防治高粱秋行軍蟲之經驗,適時防治可大幅減少作物損失。"
           },
           {
            "content": "防檢局另已盤點小麥秋行軍蟲緊急防治藥劑,預擬開口契約,並完成小麥秋行軍蟲防治整合性管理技術,將提供各地方政府及改良場教育宣導使用。"
           },
           {
            "content": "應變小組指出,目前仍處於秋行軍蟲緊急防疫第二階段,發生疫情田區須依第二階段緊急防治標準作業程序進行強制施藥,以有效控制疫情的發生。另為提升農友秋行軍蟲辨識、通報及自主管理能力,農委會所屬試驗場所及各地方政府針對重點產區仍持續密集辦理秋行軍蟲宣導講習,農友如有相關諮詢服務及用藥技術指導之需求,亦可於上班時間撥打轄區農業改良場諮詢專線或防檢局24小時免付費專線0800-039-131洽詢。"
           },
           {
            "content": "截至12月11日止,全國各縣市共有秋行軍蟲幼蟲確診案場發生面積共約18,803公頃;其中管制面積18,751公頃,解列面積52公頃;已處理面積約18,620公頃,待處理面積183公頃。秋行軍蟲相關疫情資訊,每日更新於「秋行軍蟲專區」國內疫情現況(網址:https://faw.baphiq.gov.tw/ws.php?id=20076)。(參考資料來源:行政院農業委員會動植物防疫檢疫局)"
           }
          ]
         }
        ]
       }
      },
      "remark": [
       "註1:天氣預報中,各縣市預報以各縣市政府所在地附近為預報參考位置。",
       "註2:天氣預報高低氣溫出現同值時,表示兩者差距在1℃以內。",
       "註3:度日(Degree-days):植物發育時所需之有效溫度單位。",
       "註4:積溫:植物發育過程中,當各生育階段有效溫度累積至一定數值時,即可完成發育。該數值即稱為此一發育階段所需的積溫。",
       "註5:分別以臺中區農改場、高雄區農改場及花蓮區農改場所進行豐欠試驗稻作和氣象觀測資料進行稻作積溫值計算。",
       "註6:稻作積溫值計算出現「-」符號表示該地目前尚未插秧或已經收割。",
       "註7:稻作最低、最高生長溫度以10℃、40℃為基準。"
      ]
     }
    }
   }
  }
 }
}