夏作,間隔天數,生育時期,生育標題,提醒內容
0,0,育苗期,播種催芽,播種開始
2,2,育苗期,出芽,露出芽點
7,5,育苗期,子葉展開,子葉展開
9,2,育苗期,第1本葉展開,第1本葉展開
14,5,育苗期,定植開始(2片本葉),本葉長出2-3片葉
25,11,植株生育期,整蔓,蔓長約30 cm開始理蔓
30,5,植株生育期,整蔓,除側芽
39,5,植株生育期,整蔓,除側芽
39,4,植株生育期,整蔓,除側芽
43,4,植株生育期,整蔓,除側芽
44,1,開花結果期,開花授粉,開花開始，每分地放蜂授粉8巢蜂片
47,3,開花結果期,開花授粉,開花盛期、除側芽
51,4,開花結果期,著果,選果，留果高度100-130cm
56,5,開花結果期,幼果肥大,傍晚移蜂、除側芽
58,2,開花結果期,網紋形成,果蔓留2-3葉後除芽
63,5,開花結果期,網紋形成,疏果，套袋避免陽光直射與隔離後期防治資材。
65,2,開花結果期,大果肥大,疏果
67,2,開花結果期,大果肥大,注意灌水
69,2,開花結果期,大果肥大,注意灌水
71,2,開花結果期,大果肥大,注意灌水
73,2,開花結果期,大果肥大,注意灌水
87,14,成熟期,糖度上升,糖度11-15度左右開始採收
94,7,成熟期,採收,3天後採收結束
,,,,
